Determinanten des Glücks: Eine Korrelationsanalyse der Einflussfaktoren des World Happiness Reports 2025
…
 [1] "Year"                                      
 [2] "Rank"                                      
 [3] "Country name"                              
 [4] "Ladder score"                              
 [5] "upperwhisker"                              
 [6] "lowerwhisker"                              
 [7] "Explained by: Log GDP per capita"          
 [8] "Explained by: Social support"              
 [9] "Explained by: Healthy life expectancy"     
[10] "Explained by: Freedom to make life choices"
[11] "Explained by: Generosity"                  
[12] "Explained by: Perceptions of corruption"   
[13] "Dystopia + residual"                       

# A tibble: 1,969 × 14
# Groups:   desc(Year) [13]
    Year  Rank `Country name` `Ladder score` upperwhisker lowerwhisker
   <dbl> <dbl> <chr>                   <dbl>        <dbl>        <dbl>
 1  2024     1 Finland                  7.74         7.81         7.66
 2  2023   143 Afghanistan              1.72         1.78         1.67
 3  2022   137 Afghanistan              1.86         1.92         1.80
 4  2021   146 Afghanistan              2.40         2.47         2.34
 5  2020   150 Afghanistan              2.52         2.60         2.45
 6  2019   153 Afghanistan              2.57         2.63         2.51
 7  2018   154 Afghanistan              3.20        NA           NA   
 8  2017   145 Afghanistan              3.63        NA           NA   
 9  2016   141 Afghanistan              3.79        NA           NA   
10  2015   154 Afghanistan              3.36        NA           NA   
# ℹ 1,959 more rows
# ℹ 8 more variables: `Explained by: Log GDP per capita` <dbl>,
#   `Explained by: Social support` <dbl>,
#   `Explained by: Healthy life expectancy` <dbl>,
#   `Explained by: Freedom to make life choices` <dbl>,
#   `Explained by: Generosity` <dbl>,
#   `Explained by: Perceptions of corruption` <dbl>, …
